C01-Importing-Data-with-cryptocompare
…
1) Stock Method and Exchange Method

The stock and exchange methods return the financial data of a cryptocurrency. As for the stock method, it is possible to insert more than one symbol and the data will be grouped into a single tibble, it is possible to search for data by specifying one or more exchanges and if the data will be found they will be added otherwise no. With regard to the exchange method it is possible to obtain the exchange data both for the entire market and for specific exchange or cryptocurrency.

gettig stocks

The stock Data available are daily, hourly and minutly.

## # A tibble: 456 x 10
##    time                symbol exchange currency  high   low  open
##    <dttm>              <chr>  <chr>    <chr>    <dbl> <dbl> <dbl>
##  1 2019-06-01 02:00:00 BTC    all_exc USD      8619. 8460. 8551.
##  2 2019-05-31 02:00:00 BTC    all_exc USD      8571. 8116  8276.
##  3 2019-05-30 02:00:00 BTC    all_exc USD      9066. 8027. 8665.
##  4 2019-05-29 02:00:00 BTC    all_exc USD      8760. 8444. 8719.
##  5 2019-05-28 02:00:00 BTC    all_exc USD      8819. 8562. 8785.
##  6 2019-05-27 02:00:00 BTC    all_exc USD      8932. 8668. 8726.
##  7 2019-05-26 02:00:00 BTC    all_exc USD      8779  7895. 8059.
##  8 2019-05-25 02:00:00 BTC    all_exc USD      8141. 7949. 7996.
##  9 2019-05-24 02:00:00 BTC    all_exc USD      8165. 7802. 7876.
## 10 2019-05-23 02:00:00 BTC    all_exc USD      7971. 7479. 7627.
## #  with 446 more rows, and 3 more variables: volumefrom <dbl>,
## #   volumeto <dbl>, adj <dbl>

## # A tibble: 456 x 10
##    time                symbol exchange currency close  high   low  open
##    <dttm>              <chr>  <chr>    <chr>    <dbl> <dbl> <dbl> <dbl>
##  1 2019-06-01 02:00:00 BTC    Coinbase USD      8559. 8618  8452. 8554.
##  2 2019-05-31 02:00:00 BTC    Coinbase USD      8554. 8580  8110  8280.
##  3 2019-05-30 02:00:00 BTC    Coinbase USD      8280. 9090  7972  8662.
##  4 2019-05-29 02:00:00 BTC    Coinbase USD      8662. 8760. 8426. 8715.
##  5 2019-05-28 02:00:00 BTC    Coinbase USD      8715. 8822. 8545  8772.
##  6 2019-05-27 02:00:00 BTC    Coinbase USD      8772. 8948. 8611. 8732.
##  7 2019-05-26 02:00:00 BTC    Coinbase USD      8732. 8794. 7882. 8064.
##  8 2019-05-25 02:00:00 BTC    Coinbase USD      8064. 8149  7941. 8002.
##  9 2019-05-24 02:00:00 BTC    Coinbase USD      8002. 8175  7795. 7882.
## 10 2019-05-23 02:00:00 BTC    Coinbase USD      7882. 7985. 7467. 7626.
## #  with 446 more rows, and 2 more variables: volumefrom <dbl>, adj <dbl>

## # A tibble: 456 x 10
##    time                symbol exchange currency  high   low  open
##    <dttm>              <chr>  <chr>    <chr>    <dbl> <dbl> <dbl>
##  1 2019-06-01 02:00:00 BTC    all_exc USD      8619. 8460. 8551.
##  2 2019-05-31 02:00:00 BTC    all_exc USD      8571. 8116  8276.
##  3 2019-05-30 02:00:00 BTC    all_exc USD      9066. 8027. 8665.
##  4 2019-05-29 02:00:00 BTC    all_exc USD      8760. 8444. 8719.
##  5 2019-05-28 02:00:00 BTC    all_exc USD      8819. 8562. 8785.
##  6 2019-05-27 02:00:00 BTC    all_exc USD      8932. 8668. 8726.
##  7 2019-05-26 02:00:00 BTC    all_exc USD      8779  7895. 8059.
##  8 2019-05-25 02:00:00 BTC    all_exc USD      8141. 7949. 7996.
##  9 2019-05-24 02:00:00 BTC    all_exc USD      8165. 7802. 7876.
## 10 2019-05-23 02:00:00 BTC    all_exc USD      7971. 7479. 7627.
## #  with 446 more rows, and 3 more variables: volumefrom <dbl>,
## #   volumeto <dbl>, adj <dbl>

## # A tibble: 456 x 10
##    time                symbol exchange currency close  high   low  open
##    <dttm>              <chr>  <chr>    <chr>    <dbl> <dbl> <dbl> <dbl>
##  1 2019-06-01 02:00:00 XRP    Coinbase USD      0.430 0.442 0.419 0.439
##  2 2019-05-31 02:00:00 XRP    Coinbase USD      0.439 0.442 0.406 0.420
##  3 2019-05-30 02:00:00 XRP    Coinbase USD      0.420 0.475 0.4   0.444
##  4 2019-05-29 02:00:00 XRP    Coinbase USD      0.444 0.459 0.42  0.449
##  5 2019-05-28 02:00:00 XRP    Coinbase USD      0.449 0.461 0.419 0.434
##  6 2019-05-27 02:00:00 XRP    Coinbase USD      0.434 0.448 0.405 0.410
##  7 2019-05-26 02:00:00 XRP    Coinbase USD      0.410 0.419 0.374 0.388
##  8 2019-05-25 02:00:00 XRP    Coinbase USD      0.388 0.397 0.382 0.385
##  9 2019-05-24 02:00:00 XRP    Coinbase USD      0.385 0.396 0.372 0.382
## 10 2019-05-23 02:00:00 XRP    Coinbase USD      0.382 0.389 0.362 0.372
## #  with 446 more rows, and 2 more variables: volumefrom <dbl>, adj <dbl>

gettig exchange

The exchange Data available are daily and hourly.

# using cryptocompare generic fun 

# market data 
cryptocompare(method = "exchange", quiet = TRUE)

## # A tibble: 4,348 x 5
##    time                symbol      interval exchange           volume
##    <dttm>              <chr>       <chr>    <chr>               <dbl>
##  1 2019-11-26 01:00:00 all_symbols day      all_exchange  5468114675.
##  2 2019-11-25 01:00:00 all_symbols day      all_exchange 12650241861.
##  3 2019-11-24 01:00:00 all_symbols day      all_exchange  8715824780.
##  4 2019-11-23 01:00:00 all_symbols day      all_exchange  7908992027.
##  5 2019-11-22 01:00:00 all_symbols day      all_exchange 15366451916.
##  6 2019-11-21 01:00:00 all_symbols day      all_exchange  9905194588.
##  7 2019-11-20 01:00:00 all_symbols day      all_exchange  6809937558.
##  8 2019-11-19 01:00:00 all_symbols day      all_exchange  7957681142.
##  9 2019-11-18 01:00:00 all_symbols day      all_exchange  8147238893.
## 10 2019-11-17 01:00:00 all_symbols day      all_exchange  6316346206.
## #  with 4,338 more rows

# searching exchange data for some symbols 
cryptocompare(c("BTC","ETH", "XRP"),method = "exchange", quiet = TRUE)

## # A tibble: 13,044 x 13
##    time                symbol interval exchange top_tier_volume
##    <dttm>              <chr>  <chr>    <chr>               <dbl>
##  1 2019-11-26 01:00:00 BTC    day      all_exc            3202.
##  2 2019-11-25 01:00:00 BTC    day      all_exc           85300.
##  3 2019-11-24 01:00:00 BTC    day      all_exc           56940.
##  4 2019-11-23 01:00:00 BTC    day      all_exc           55925.
##  5 2019-11-22 01:00:00 BTC    day      all_exc           92252.
##  6 2019-11-21 01:00:00 BTC    day      all_exc           63565.
##  7 2019-11-20 01:00:00 BTC    day      all_exc           48695.
##  8 2019-11-19 01:00:00 BTC    day      all_exc           56140.
##  9 2019-11-18 01:00:00 BTC    day      all_exc           54998.
## 10 2019-11-17 01:00:00 BTC    day      all_exc           37223.
## #  with 13,034 more rows, and 8 more variables:
## #   top_tier_volume_from <dbl>, top_tier_volume_total <dbl>,
## #   cccagg_volume_to <dbl>, cccagg_volume_from <dbl>,
## #   cccagg_volume_total <dbl>, total_volume_to <dbl>,
## #   total_volume_from <dbl>, total_volume_total <dbl>

# searching exchange data for a specific exchange 
cryptocompare(method = "exchange", exchange = c("Coinbase","Yobit"), quiet = TRUE)

## # A tibble: 8,696 x 5
##    time                symbol      interval exchange     volume
##    <dttm>              <chr>       <chr>    <chr>         <dbl>
##  1 2019-11-26 01:00:00 all_symbols day      Coinbase  89612180.
##  2 2019-11-25 01:00:00 all_symbols day      Coinbase 344649877.
##  3 2019-11-24 01:00:00 all_symbols day      Coinbase 137571781.
##  4 2019-11-23 01:00:00 all_symbols day      Coinbase 131264216.
##  5 2019-11-22 01:00:00 all_symbols day      Coinbase 447190081.
##  6 2019-11-21 01:00:00 all_symbols day      Coinbase 233202873.
##  7 2019-11-20 01:00:00 all_symbols day      Coinbase  98520641.
##  8 2019-11-19 01:00:00 all_symbols day      Coinbase 125897497.
##  9 2019-11-18 01:00:00 all_symbols day      Coinbase 159299431.
## 10 2019-11-17 01:00:00 all_symbols day      Coinbase  68446587.
## #  with 8,686 more rows

# searching exchange data for a specific symbol and exchange 
cryptocompare(search = c("BTC","ETH", "XRP"),
              method = "exchange", exchange = c("Coinbase","Yobit"), quiet = TRUE)

## # A tibble: 26,088 x 7
##    time                symbol interval exchange volumeto volumefrom
##    <dttm>              <chr>  <chr>    <chr>       <dbl>      <dbl>
##  1 2019-11-26 01:00:00 BTC    day      Coinbase   2.67e6  60418972.
##  2 2019-11-25 01:00:00 BTC    day      Coinbase   1.01e7 218349390.
##  3 2019-11-24 01:00:00 BTC    day      Coinbase   4.97e6  84730953.
##  4 2019-11-23 01:00:00 BTC    day      Coinbase   6.09e6  62712265.
##  5 2019-11-22 01:00:00 BTC    day      Coinbase   1.28e7 282985489.
##  6 2019-11-21 01:00:00 BTC    day      Coinbase   1.09e7 135973751.
##  7 2019-11-20 01:00:00 BTC    day      Coinbase   4.93e6  53111417.
##  8 2019-11-19 01:00:00 BTC    day      Coinbase   6.12e6  70415650.
##  9 2019-11-18 01:00:00 BTC    day      Coinbase   9.23e6  89227944.
## 10 2019-11-17 01:00:00 BTC    day      Coinbase   4.59e6  38110647.
## #  with 26,078 more rows, and 1 more variable: volumetotal <dbl>
…
3) News Method

The news method allows you to get news with titles, sources and other information on the world of cryptocurrencies. It is possible to use the method by specifying only the from and to parameters, or by filtering the data for a specific source (feeds) or for a specific category.

getting all news

# all news in an interval of dates 
cryptocompare(method = "news", from = "2019-11-01", to = "2019-11-10", quiet = T)

## # A tibble: 450 x 13
##    time                feed  id    guid  imageurl title url   body  tags 
##    <dttm>              <chr> <chr> <chr> <chr>    <chr> <chr> <chr> <chr>
##  1 2019-11-10 00:30:11 news 4101 http https:/ Is B http As y Bitc
##  2 2019-11-10 00:00:51 ccn   4101 http https:/ Bitc http Pete Cryp
##  3 2019-11-09 23:35:00 coin 4101 http https:/ Cryp http Turk Bloc
##  4 2019-11-09 23:00:59 live 4100 http https:/ Stab http Stab Altc
##  5 2019-11-09 23:00:09 news 4100 http https:/ Anal http On F Bitc
##  6 2019-11-09 22:31:20 dail 4100 http https:/ Bitc http Bitc Bitc
##  7 2019-11-09 22:00:13 bitc 4100 http https:/ Prot http Priv Cryp
##  8 2019-11-09 21:43:00 coin 4099 http https:/ Tuni http Tuni Bloc
##  9 2019-11-09 21:30:31 news 4099 http https:/ Cryp http Anot Unca
## 10 2019-11-09 21:30:22 ambc 4099 http https:/ Ethe http Over Ethe
## #  with 440 more rows, and 4 more variables: categories <chr>,
## #   upvotes <chr>, downvotes <chr>, lang <chr>
…
get news by categories

# all news in an interval of dates searching by a specific category 
cryptocompare(method = "news", categories = "BTC", from = "2019-11-01", to = "2019-11-10", quiet = T)

## # A tibble: 450 x 13
##    time                feed  id    guid  imageurl title url   body  tags 
##    <dttm>              <chr> <chr> <chr> <chr>    <chr> <chr> <chr> <chr>
##  1 2019-11-10 00:30:11 news 4101 http https:/ Is B http As y Bitc
##  2 2019-11-10 00:00:51 ccn   4101 http https:/ Bitc http Pete Cryp
##  3 2019-11-09 23:35:00 coin 4101 http https:/ Cryp http Turk Bloc
##  4 2019-11-09 23:00:59 live 4100 http https:/ Stab http Stab Altc
##  5 2019-11-09 23:00:09 news 4100 http https:/ Anal http On F Bitc
##  6 2019-11-09 22:31:20 dail 4100 http https:/ Bitc http Bitc Bitc
##  7 2019-11-09 22:00:13 bitc 4100 http https:/ Prot http Priv Cryp
##  8 2019-11-09 21:30:31 news 4099 http https:/ Cryp http Anot Unca
##  9 2019-11-09 21:00:22 live 4099 http https:/ Bitc http At p Bitc
## 10 2019-11-09 20:30:52 news 4098 http https:/ Lite http Bitc Cryp
## #  with 440 more rows, and 4 more variables: categories <chr>,
## #   upvotes <chr>, downvotes <chr>, lang <chr>
…
4) General Method

The general method allows downloading generic data.

accessible endpoints without an api key

# coin list 

cryptocompare(search = "coin", method = "general", quiet = T)

## # A tibble: 4,288 x 24
##    Id    Url   ImageUrl ContentCreatedOn Name  Symbol CoinName FullName
##    <chr> <chr> <chr>               <int> <chr> <chr>  <chr>    <chr>   
##  1 4321  /coi /media/       1427211129 42    42     42 Coin  42 Coin
##  2 7498 /coi /media/       1517935016 300   300    300 tok 300 tok
##  3 33639 /coi /media/       1480032918 365   365    365Coin  365Coin
##  4 21227 /coi /media/       1466100361 404   404    404Coin  404Coin
##  5 9265 /coi /media/       1541597321 433   433    433 Tok 433 Tok
##  6 20909 /coi /media/       1465914773 611   611    SixElev SixElev
##  7 28223 /coi /media/       1473980395 808   808    808      808 (80
##  8 29462 /coi /media/       1475534352 888   888    Octocoin Octocoi
##  9 20824 /coi /media/       1465838687 1337  1337   EliteCo EliteCo
## 10 3744  /coi /media/       1425316878 2015  2015   2015 co 2015 co
## #  with 4,278 more rows, and 16 more variables: Algorithm <chr>,
## #   ProofType <chr>, FullyPremined <chr>, TotalCoinSupply <chr>,
## #   BuiltOn <chr>, SmartContractAddress <chr>, PreMinedValue <chr>,
## #   TotalCoinsFreeFloat <chr>, SortOrder <chr>, Sponsored <lgl>,
## #   IsTrading <lgl>, TotalCoinsMined <dbl>, BlockNumber <int>,
## #   NetHashesPerSecond <dbl>, BlockReward <dbl>, BlockTime <int>

#  all exchanges info 

cryptocompare(search = "exchanges", method = "general", quiet = T)

## # A tibble: 239 x 20
##    Id    Name  Url   LogoUrl CentralizationT InternalName GradePoints
##    <chr> <chr> <chr> <chr>   <chr>            <chr>        <chr>      
##  1 2431  Bits /exc /media Centralized      Bitstamp     71         
##  2 2434  Bitt /exc /media Centralized      BitTrex      57         
##  3 2436  OKCo /exc /media Centralized      OKCoin       61         
##  4 2437  BTER  /exc /media Centralized      BTER         0          
##  5 2438  Polo /exc /media Centralized      Poloniex     67         
##  6 2439  Krak /exc /media Centralized      Kraken       73         
##  7 2440  Bitf /exc /media Centralized      Bitfinex     65.5       
##  8 2441  Cex. /exc /media Centralized      Cexio        60         
##  9 2487  Yacu /exc /media Centralized      Yacuna       0          
## 10 2493  Coin /exc /media Centralized      Coinbase     75         
## #  with 229 more rows, and 13 more variables: Grade <chr>,
## #   AffiliateURL <chr>, Country <chr>, OrderBook <lgl>, Trades <lgl>,
## #   Description <chr>, FullAddress <chr>, Fees <chr>,
## #   DepositMethods <chr>, WithdrawalMethods <chr>, Sponsored <lgl>,
## #   Recommended <lgl>, SortOrder <chr>
…
